{
  "bomFormat": "CycloneDX",
  "specVersion": "1.4",
  "serialNumber": "urn:uuid:043b7bc8-f808-4ddb-b1c9-9df2acc8bfe0",
  "version": 1,
  "metadata": {
    "timestamp": "2023-10-18T15:20:37+00:00",
    "tools": [
      {
        "vendor": "aquasecurity",
        "name": "trivy",
        "version": "0.36.1"
      }
    ],
    "component": {
      "bom-ref": "pkg:oci/main@sha256:adf10351862ad5351ac2e714e04a0afb020b9df658ac99a07cbf49c0e18f8e43?repository_url=registry.gitlab.com%2Fsecure%2Fcs-scratch%2Fmain\u0026arch=amd64",
      "type": "container",
      "name": "registry.gitlab.com/secure/cs-scratch/main:60c1ced811b037afdd106383d6ea7c6c2a4609cd",
      "purl": "pkg:oci/main@sha256:adf10351862ad5351ac2e714e04a0afb020b9df658ac99a07cbf49c0e18f8e43?repository_url=registry.gitlab.com%2Fsecure%2Fcs-scratch%2Fmain\u0026arch=amd64",
      "properties": [
        {
          "name": "aquasecurity:trivy:SchemaVersion",
          "value": "2"
        },
        {
          "name": "aquasecurity:trivy:ImageID",
          "value": "sha256:71de1148337f4d1845be01eb4caf15d78e4eb15a1ab96030809826698a5b7e30"
        },
        {
          "name": "aquasecurity:trivy:RepoDigest",
          "value": "registry.gitlab.com/secure/cs-scratch/main@sha256:adf10351862ad5351ac2e714e04a0afb020b9df658ac99a07cbf49c0e18f8e43"
        },
        {
          "name": "aquasecurity:trivy:RepoTag",
          "value": "registry.gitlab.com/secure/cs-scratch/main:60c1ced811b037afdd106383d6ea7c6c2a4609cd"
        }
      ]
    }
  },
  "components": null,
  "dependencies": [
    {
      "ref": "pkg:oci/main@sha256:adf10351862ad5351ac2e714e04a0afb020b9df658ac99a07cbf49c0e18f8e43?repository_url=registry.gitlab.com%2Fsecure%2Fcs-scratch%2Fmain\u0026arch=amd64",
      "dependsOn": null
    }
  ],
  "vulnerabilities": []
}
